{
    "prepare_queue": {
        "installed": [],
        "uninstalled": []
    },
    "config_munge": {
        "files": {}
    },
    "installed_plugins": {
        "cordova-plugin-actionsheet": {
            "PACKAGE_NAME": "io.movmentAND.app"
        },
        "cordova-plugin-apprate": {
            "PACKAGE_NAME": "io.movmentAND.app"
        },
        "cordova-plugin-camera": {
            "PACKAGE_NAME": "io.movmentAND.app"
        },
        "cordova-plugin-dialogs": {
            "PACKAGE_NAME": "io.movmentAND.app"
        },
        "cordova-plugin-file": {
            "PACKAGE_NAME": "io.movmentAND.app"
        },
        "cordova-plugin-file-transfer": {
            "PACKAGE_NAME": "io.movmentAND.app"
        },
        "cordova-plugin-geolocation": {
            "PACKAGE_NAME": "io.movmentAND.app"
        },
        "cordova-plugin-google-analytics": {
            "PACKAGE_NAME": "io.movmentAND.app"
        },
        "cordova-plugin-image-picker": {
            "PACKAGE_NAME": "io.movmentAND.app"
        },
        "cordova-plugin-inappbrowser": {
            "PACKAGE_NAME": "io.movmentAND.app"
        },
        "cordova-plugin-network-information": {
            "PACKAGE_NAME": "io.movmentAND.app"
        },
        "cordova-plugin-splashscreen": {
            "PACKAGE_NAME": "io.movmentAND.app"
        },
        "cordova-plugin-statusbar": {
            "PACKAGE_NAME": "io.movmentAND.app"
        },
        "cordova-plugin-whitelist": {
            "PACKAGE_NAME": "io.movmentAND.app"
        },
        "cordova-plugin-x-socialsharing": {
            "PACKAGE_NAME": "io.movmentAND.app"
        },
        "de.appplant.cordova.plugin.local-notification": {
            "PACKAGE_NAME": "io.movmentAND.app"
        },
        "ionic-plugin-keyboard": {
            "PACKAGE_NAME": "io.movmentAND.app"
        },
        "uk.co.workingedge.phonegap.plugin.launchnavigator": {
            "PACKAGE_NAME": "io.movmentAND.app"
        },
        "cordova-plugin-media-capture": {
            "PACKAGE_NAME": "io.movmentAPP.app"
        },
        "cordova-sqlite-storage": {
            "PACKAGE_NAME": "io.movmentAPP.app"
        },
        "cordova-plugin-facebook4": {
            "APP_ID": "484274888364234",
            "APP_NAME": "Movment",
            "PACKAGE_NAME": "io.movmentAPP.app"
        },
        "com.dawsonloudon.videoplayer": {
            "PACKAGE_NAME": "io.movmentAPP.app"
        },
        "jaeger.Html5Video": {
            "PACKAGE_NAME": "io.movmentAND.app"
        },
        "cordova-plugin-vibration": {
            "PACKAGE_NAME": "io.movmentAPP.app"
        },
        "cordova-plugin-mixpanel": {
            "PACKAGE_NAME": "io.movmentAND.app"
        },
        "cordova-plugin-app-version": {
            "PACKAGE_NAME": "io.movmentAND.app"
        },
        "cordova-plugin-intercom": {
            "PACKAGE_NAME": "io.movmentAND.app"
        },
        "phonegap-plugin-push": {
            "SENDER_ID": "608995360280",
            "PACKAGE_NAME": "io.movmentAPP.app"
        }
    },
    "dependent_plugins": {
        "cordova-plugin-app-event": {
            "PACKAGE_NAME": "io.movmentAND.app"
        },
        "cordova-plugin-globalization": {
            "PACKAGE_NAME": "io.movmentAND.app"
        },
        "cordova-plugin-compat": {
            "PACKAGE_NAME": "io.movmentAND.app"
        },
        "cordova-plugin-device": {
            "PACKAGE_NAME": "io.movmentAND.app"
        }
    }
}